<?xml version="1.0" encoding="UTF-8" standalone="no"?>
<!-- Created with Inkscape (http://www.inkscape.org/) -->

<svg
   xmlns:dc="http://purl.org/dc/elements/1.1/"
   xmlns:cc="http://creativecommons.org/ns#"
   xmlns:rdf="http://www.w3.org/1999/02/22-rdf-syntax-ns#"
   xmlns:svg="http://www.w3.org/2000/svg"
   xmlns="http://www.w3.org/2000/svg"
   xmlns:xlink="http://www.w3.org/1999/xlink"
   xmlns:sodipodi="http://sodipodi.sourceforge.net/DTD/sodipodi-0.dtd"
   xmlns:inkscape="http://www.inkscape.org/namespaces/inkscape"
   version="1.1"
   id="svg834"
   height="20cm"
   max-height="80%"
   viewBox="0 0 2400 790.66669"
   sodipodi:docname="bg.svg"
   enable-background="new"
   inkscape:version="0.92.2 2405546, 2018-03-11">
  <metadata
     id="metadata840">
    <rdf:RDF>
      <cc:Work
         rdf:about="">
        <dc:format>image/svg+xml</dc:format>
        <dc:type
           rdf:resource="http://purl.org/dc/dcmitype/StillImage" />
        <dc:title></dc:title>
      </cc:Work>
    </rdf:RDF>
  </metadata>
  <defs
     id="defs838">
    <linearGradient
       inkscape:collect="always"
       id="linearGradient962">
      <stop
         style="stop-color:#9eb0bb;stop-opacity:1;"
         offset="0"
         id="stop958" />
      <stop
         style="stop-color:#75848d;stop-opacity:1"
         offset="1"
         id="stop960" />
    </linearGradient>
    <linearGradient
       inkscape:collect="always"
       id="linearGradient954">
      <stop
         style="stop-color:#c3ced5;stop-opacity:1"
         offset="0"
         id="stop950" />
      <stop
         style="stop-color:#7fa1b7;stop-opacity:0"
         offset="1"
         id="stop952" />
    </linearGradient>
    <linearGradient
       inkscape:collect="always"
       id="linearGradient864">
      <stop
         style="stop-color:#9eb0bb;stop-opacity:1"
         offset="0"
         id="stop860" />
      <stop
         style="stop-color:#d0d5d8;stop-opacity:1"
         offset="1"
         id="stop862" />
    </linearGradient>
    <linearGradient
       inkscape:collect="always"
       xlink:href="#linearGradient864"
       id="linearGradient866"
       x1="1298.9691"
       y1="795.33337"
       x2="1298.9691"
       y2="104.61169"
       gradientUnits="userSpaceOnUse" />
    <linearGradient
       inkscape:collect="always"
       xlink:href="#linearGradient954"
       id="linearGradient956"
       x1="1284.5361"
       y1="568.52924"
       x2="1284.5361"
       y2="787.08594"
       gradientUnits="userSpaceOnUse" />
    <linearGradient
       inkscape:collect="always"
       xlink:href="#linearGradient962"
       id="linearGradient964"
       x1="1272.1649"
       y1="787.08594"
       x2="1272.1649"
       y2="1.5189105"
       gradientUnits="userSpaceOnUse" />
  </defs>
  <sodipodi:namedview
     pagecolor="#ffffff"
     bordercolor="#666666"
     borderopacity="1"
     objecttolerance="10"
     gridtolerance="10"
     guidetolerance="10"
     inkscape:pageopacity="0"
     inkscape:pageshadow="2"
     inkscape:window-width="1770"
     inkscape:window-height="1061"
     id="namedview836"
     showgrid="false"
     inkscape:zoom="0.34294679"
     inkscape:cx="816.44621"
     inkscape:cy="712.45515"
     inkscape:window-x="150"
     inkscape:window-y="0"
     inkscape:window-maximized="1"
     inkscape:current-layer="svg834" />
  <rect
     style="display:inline;opacity:1;fill:url(#linearGradient866);fill-opacity:1;stroke:none;stroke-width:13.98047256;stroke-linecap:butt;stroke-linejoin:miter;stroke-miterlimit:4;stroke-dasharray:none;stroke-opacity:1"
     id="rect850"
     width="2400"
     height="790.66669"
     x="0"
     y="0" />
  <path
     inkscape:connector-curvature="0"
     id="path944"
     d="m 0,732.72982 v -57.93687 l 34.778071,-0.39646 34.77807,-0.39647 3.806302,-4.26227 c 2.093465,-2.34424 4.465242,-6.54424 5.270614,-9.33333 5.282554,-18.29401 7.498966,-62.8374 9.37472,-188.40441 0.717536,-48.03333 1.917442,-92.73333 2.666458,-99.33333 1.721154,-15.16606 3.159657,-16.66667 15.976885,-16.66667 6.32208,0 9.51047,-0.58813 10.65326,-1.96511 2.50282,-3.01572 3.73759,-26.72608 4.61932,-88.70156 1.62118,-113.95012 5.92435,-150.51472 19.2861,-163.87647 5.34907,-5.349064 9.66449,-6.790201 20.33303,-6.790201 17.88649,0 26.24874,11.894631 30.98957,44.080151 3.00381,20.39288 4.56889,47.62936 6.82915,118.84507 2.48437,78.27739 3.94157,91.90099 10.3067,96.35931 2.37592,1.66416 7.56996,2.04881 27.66508,2.04881 28.55647,0 29.59263,0.33529 31.93364,10.33331 2.10259,8.9798 3.94291,81.78871 5.08371,201.12878 0.80375,84.08031 1.31581,103.19677 2.81257,105 2.60604,3.13959 15.51967,2.90987 24.4534,-0.43501 20.37023,-7.62682 26.53306,-22.8284 28.38946,-70.02707 0.46149,-11.73334 1.13598,-22.37279 1.49889,-23.64322 0.36289,-1.27044 2.67637,-3.2668 5.14104,-4.43636 8.92376,-4.2346 10.76064,-12.55718 13.37221,-60.58709 2.85586,-52.5225 4.08072,-60.8619 10.05468,-68.45656 2.46136,-3.1291 3.71852,-3.54344 10.75111,-3.54344 15.82649,0 18.28779,7.52646 21.14721,64.66666 2.60808,52.1177 4.64134,61.65314 14.46923,67.85722 5.11657,3.22995 5.36559,3.71279 6.06279,11.75555 0.39989,4.61297 1.0552,17.38724 1.45625,28.38724 0.75,20.57085 2.93508,35.17783 6.56016,43.85387 1.13756,2.72256 7.09755,10.17797 13.24443,16.56758 6.14686,6.38962 12.09797,13.40872 13.22468,15.59802 6.08956,11.83265 10.003,33.92746 12.98537,73.31387 0.7774,10.26666 1.66352,20.61666 1.96915,23 l 0.5557,4.33333 H 231.24951 0 Z m 714.02136,54.03411 c -1.4342,-6.52987 -6.34375,-10.03887 -19.64713,-14.04241 -17.22338,-5.18322 -37.82223,-15.28572 -45.80911,-22.46662 -3.66588,-3.29594 -8.44271,-9.20162 -10.61517,-13.12374 -3.69546,-6.67169 -3.94479,-8.03315 -3.86987,-21.13114 0.0455,-7.95559 1.11996,-19.06277 2.48864,-25.72632 l 2.40857,-11.72633 -3.48865,-7.77374 c -4.30337,-9.58921 -4.34581,-13.16121 -0.29548,-24.87341 4.61936,-13.35765 4.64069,-13.39645 8.27625,-15.05293 12.88182,-5.86935 22.49144,4.87682 22.49255,25.15273 3.1e-4,5.5 -0.5022,15.4 -1.11668,22 l -1.11724,12 4.73199,4.5264 c 4.6009,4.40103 4.89089,4.48424 10.4693,3.00415 8.54082,-2.26608 26.83784,-4.19792 39.70236,-4.19186 27.75963,0.0133 60.81502,9.07754 94.99236,26.04879 22.22623,11.03676 30.45563,19.18504 28.25028,27.97186 -2.25692,8.9923 -19.10134,13.6024 -84.541,23.13774 -28.95825,4.21956 -27.06632,3.09115 -24.31589,14.50292 l 1.36577,5.66667 h -4.3945 c -3.68403,0 -4.61995,-0.64669 -5.78892,-4 -0.76692,-2.2 -1.77328,-4 -2.23638,-4 -0.46308,0 -0.44661,1.8 0.0365,4 0.82381,3.75079 0.62933,4 -3.12146,4 -3.33817,0 -4.14182,-0.64573 -4.85718,-3.90276 z M 804,790.01792 c 0,-1.73244 11.53275,-5.09638 25.33333,-7.38938 24.653,-4.09616 50.95899,-5.40916 124.66667,-6.22244 48.7553,-0.53796 69.6241,-1.20641 70.3129,-2.25221 0.5388,-0.81796 0.9925,-24.8872 1.0083,-53.4872 0.029,-53.45319 1.6093,-108.45942 4.0589,-141.33334 2.0377,-27.34547 4.7386,-48.89083 11.2824,-90 9.6028,-60.32711 10.6003,-71.883 12.6596,-146.66667 2.1077,-76.54479 3.7792,-113.40739 5.3997,-119.08658 2.7423,-9.61069 3.1451,-9.74371 32.7489,-10.81289 29.1558,-1.053 31.3614,-1.64647 34.5587,-9.29859 2.5593,-6.12519 4.3587,-26.58497 5.9924,-68.13528 2.8647,-72.856065 8.3131,-110.064745 19.1993,-131.1162319 L 1153.4018,0 h 118.4683 118.4682 l 2.7769,6.4550249 c 9.7155,22.5842081 14.8283,60.1075691 17.5605,128.8783151 1.5374,38.69532 3.1883,58.34507 5.57,66.29421 2.7919,9.3187 3.4995,9.54055 34.1311,10.70124 30.6919,1.16299 32.5517,1.69511 34.9243,9.99194 1.9214,6.71974 3.668,40.712 5.3612,104.34595 2.2113,83.109 3.9558,103.39952 14.158,164.66667 6.8822,41.32956 10.4698,71.42863 12.4757,104.66667 1.8787,31.12864 4.0084,114.92107 4.0244,158.33334 l 0.013,35 h 81.9016 81.9016 l -7.2824,-17 c -11.3906,-26.59034 -8.0774,-23.53727 -26.5669,-24.48087 -8.7747,-0.44781 -19.7315,-1.8214 -24.3487,-3.05243 -13.3368,-3.55589 -38.6621,-12.86037 -40.2669,-14.79407 -0.8056,-0.97073 -3.3461,-12.76918 -5.6455,-26.2188 l -4.1812,-24.45384 7.7612,-17.33333 c 17.5124,-39.111 28.8427,-59.30468 42.4151,-75.5959 l 8.55,-10.26256 0.8963,-30.85373 c 1.0476,-36.05935 4.2941,-93.60279 6.2918,-111.51798 l 1.3955,-12.51541 -6.6464,-11.62721 C 1625.0231,387.7849 1617.8117,366.205 1605.3412,313.3666 l -6.7311,-28.51964 6.8166,-22.09015 c 3.7492,-12.14958 7.4353,-22.84014 8.1916,-23.7568 2.3756,-2.87971 22.6444,-1.83706 54.7657,2.81724 22.1229,3.20553 30.8587,4.01014 32.1292,2.95932 0.9599,-0.79378 5.8172,-7.74323 10.7941,-15.44323 11.9772,-18.53011 32.6878,-47.83641 41.5598,-58.80881 l 7.1226,-8.80882 0.5922,-20.52452 c 0.912,-31.61734 5.3282,-57.391618 21.5077,-125.524523 L 1785.81,0 h 38.9599 38.96 l 10.5993,16.333334 c 24.5395,37.81451 34.3659,55.552163 43.0261,77.666669 2.2975,5.866667 4.5824,11.049347 5.0776,11.517067 0.4952,0.46772 8.1635,1.26517 17.0407,1.77212 l 16.1401,0.92171 7.4138,-11.105448 c 10.1109,-15.145924 26.4132,-33.134163 56.8889,-62.772118 l 25.7065,-25.0000004 12.8552,0.00823 12.8552,0.00823 13.1572,12.3251084 13.1571,12.325107 2.4045,22.000001 c 6.8611,62.77532 8.5696,105.62995 5.3428,134.00807 l -1.6686,14.67474 4.9526,8.31402 c 4.2522,7.1381 5.7158,8.51951 10.3476,9.76674 11.0243,2.96853 14.4408,9.76508 16.3722,32.56977 0.7892,9.31735 2.049,13.19666 9.9598,30.66667 4.9811,11 10.4983,23.6 12.2606,28 l 3.2041,8 14.5884,0.87241 c 8.0236,0.47984 18.4884,1.78891 23.2551,2.90906 11.8729,2.79008 42.8594,13.7065 43.9597,15.4868 0.4925,0.79684 2.8124,12.51341 5.1553,26.03684 l 4.26,24.58807 -11.4845,25.05341 c -17.598,38.38963 -27.4053,55.18133 -41.7397,71.46434 -3.7496,4.25934 -6.8175,8.2379 -6.8175,8.84125 0,0.60335 1.4347,4.91844 3.1881,9.58908 5.6023,14.9222 8.4734,37.76905 11.5396,91.82542 0.8112,14.3 1.8792,26.37864 2.3736,26.84144 0.4943,0.46278 7.597,1.13818 15.7838,1.50089 l 14.885,0.65948 5.3478,-5.50091 5.3478,-5.5009 -0.6852,-16.66667 c -0.7517,-18.28726 0.7414,-25.57266 10.567,-51.56251 4.295,-11.36077 4.3565,-11.4388 10.9858,-13.93004 3.8676,-1.4534 10.0991,-2.50573 14.8416,-2.50637 l 8.175,-0.001 14.6241,14.33333 c 15.2607,14.95712 20.1904,21.92399 25.092,35.46099 1.6119,4.45138 3.5344,8.29471 4.2724,8.54069 0.738,0.246 3.1661,-2.78533 5.396,-6.73631 2.2297,-3.95097 7.6608,-10.44748 12.0691,-14.43668 9.2078,-8.33262 32.9062,-22.34545 39.638,-23.43786 L 2400,544.98444 v 122.84113 122.84112 h -798 c -438.9,0 -798,-0.29195 -798,-0.64877 z m 1025.8573,-2.79362 c 0.4452,-1.15997 0.8147,-16.00997 0.8211,-33 0.013,-33.02881 1.7895,-64.67403 4.1265,-73.48575 1.9584,-7.38441 5.6563,-10.97162 12.3435,-11.97444 8.0641,-1.20928 13.4059,-4.97938 16.7017,-11.78776 5.988,-12.36962 7.6655,-27.54977 10.7896,-97.643 0.7191,-16.13333 2.1506,-32.93333 3.1811,-37.33333 1.0305,-4.4 2.2853,-11.9 2.7884,-16.66667 2.0963,-19.86279 7.5587,-24.42734 29.3908,-24.56011 21.0875,-0.12827 23.4591,2.12988 26.0248,24.77907 0.7315,6.45708 2.2199,15.49935 3.3076,20.09392 1.2933,5.46329 2.452,22.19421 3.3487,48.35379 2.8456,83.01413 4.9046,91.63005 22.9032,95.83811 3.39,0.79258 3.6222,0.5306 4.285,-4.83339 0.9052,-7.32604 1.7291,-22.43697 4.1615,-76.33806 1.0921,-24.2 2.6108,-50.3 3.3748,-58 3.2263,-32.51484 9.538,-45.33333 22.3216,-45.33333 11.0825,0 12.5509,-11.97627 16.9195,-138.00001 1.093,-31.53333 2.3272,-60.94014 2.7424,-65.34848 0.7184,-7.62608 0.5036,-8.40272 -4.4243,-16 -12.9317,-19.93625 -35.8976,-44.21353 -54.2981,-57.39864 C 1954.8,204.38241 1943.7,197.89515 1936,194.17011 c -18.6979,-9.0455 -24.7808,-9.20812 -41.852,-1.11886 -42.0841,19.94178 -76.1412,57.11 -103.4944,112.94876 -32.6056,66.56133 -48.3669,141.02519 -48.4005,228.66667 -0.02,53.35476 4.8325,94.82841 16.5712,141.62047 9.9909,39.82528 27.6613,85.24862 41.9977,107.95887 l 3.2115,5.08734 h 12.5073 c 10.1749,0 12.6581,-0.39328 13.3165,-2.10906 z m 550.587,-5.63465 c 5.9957,-13.36 8.0405,-24.55068 7.9652,-43.58963 -0.081,-20.61367 -2.8048,-32.69351 -11.272,-50 -10.2634,-20.97761 -33.9071,-40.51337 -49.1655,-40.62325 -15.3701,-0.11067 -38.1048,17.87216 -48.9247,38.6987 -9.3033,17.90776 -11.702,28.55679 -11.6956,51.92455 0,21.42426 1.6375,30.50706 7.9643,44.33334 l 3.2032,7 h 49.2249 49.2251 z"
     style="display:inline;fill:url(#linearGradient956);fill-opacity:1;stroke-width:1.33333337" />
  <path
     inkscape:connector-curvature="0"
     id="path854"
     d="m 0,734.14761 v -56.51907 l 28.333333,-0.96013 c 15.583334,-0.52808 66.133334,-0.66416 112.333337,-0.30242 89.53788,0.7011 93.033,0.94627 110.25336,7.7339 6.25164,2.46416 8.38448,2.51672 48.80864,1.20262 23.24924,-0.75577 56.97133,-2.2982 74.938,-3.42761 34.72153,-2.18264 47.47144,-1.57147 60.44277,2.89739 11.02633,3.79877 17.63033,16.53076 20.80497,40.11032 1.89452,14.07148 5.40679,53.07545 5.41351,60.11741 l 0.005,5.66667 H 230.66667 0 Z m 714.00792,52.55512 c -1.30753,-5.95315 -7.54717,-10.27809 -20.42183,-14.15521 -6.37234,-1.91899 -17.82228,-6.47428 -25.44429,-10.12287 -15.858,-7.59107 -26.44748,-16.92203 -31.07393,-27.38089 -3.56538,-8.0601 -3.70394,-22.14559 -0.4146,-42.1453 l 2.37409,-14.43489 -3.03948,-6.48943 c -2.54821,-5.44053 -2.89348,-7.74083 -2.13619,-14.23177 1.19178,-10.21488 4.73603,-21.2576 7.67708,-23.91922 1.29966,-1.17617 4.94443,-2.42946 8.09948,-2.78508 7.58104,-0.85449 10.90376,1.95714 14.53031,12.29528 2.31448,6.59787 2.65709,9.75267 1.95484,18 -0.46832,5.5 -1.21165,14.51132 -1.65185,20.02515 l -0.80035,10.02513 5.68024,5.13176 c 5.37236,4.8536 6.01392,5.08195 11.83607,4.21268 18.62402,-2.78062 24.98856,-3.3109 40.15582,-3.34573 9.16667,-0.0211 22.36667,0.88275 29.33334,2.00843 26.72392,4.31805 71.68134,22.5186 84.66956,34.2776 5.49072,4.97107 6.53044,6.66892 6.53044,10.66409 0,11.65082 -9.0914,14.76499 -70.64123,24.19754 -16.80732,2.57573 -32.65877,4.8602 -35.22544,5.07658 -5.11285,0.43106 -5.21185,0.76982 -3.32976,11.39344 0.98988,5.58747 0.95028,5.66658 -2.83316,5.65987 -3.1292,-0.005 -4.26415,-0.92796 -6.15197,-5 l -2.31491,-4.9932 0.70865,5 c 0.68218,4.81316 0.56088,5 -3.24582,5 -3.30176,0 -4.09819,-0.65429 -4.82511,-3.96396 z M 820,788.61197 c 23.75976,-4.7616 79.36809,-7.14892 173.33333,-7.44137 53.58207,-0.16676 66.11417,-0.49331 53.43217,-1.39224 -9.4002,-0.66632 -17.4213,-1.88186 -18.5405,-2.8097 -1.7123,-1.41942 -1.8527,-9.38016 -1.0636,-60.30197 1.7295,-111.60259 4.3122,-148.46225 14.8082,-211.33334 10.7666,-64.49171 12.7602,-90.53099 15.3882,-200.98954 1.4307,-60.13902 2.6044,-76.05266 5.9903,-81.22015 4.4083,-6.72787 7.1601,-7.42012 34.3652,-8.64507 14.091,-0.63446 28.2226,-1.49634 31.4036,-1.9153 5.5179,-0.72675 5.6815,-0.87443 3.5622,-3.21619 -1.9955,-2.20503 -2.0767,-4.26128 -0.799,-20.23411 0.7822,-9.77881 2.0473,-33.67965 2.8114,-53.11299 2.725,-69.31273 7.676,-103.362444 18.5005,-127.2353148 L 1157.1661,0 h 116.6085 116.6085 l 3.3097,8.3333336 c 9.3184,23.4621084 14.1455,60.6740164 16.9931,131.0000064 2.2122,54.63695 4.4861,68.65561 11.7677,72.55264 1.6641,0.89064 12.1496,1.44736 27.2597,1.44736 13.7078,0 26.3292,0.61833 28.5706,1.39971 8.1354,2.83602 9.2254,10.51658 10.9749,77.34079 3.0315,115.79169 4.4113,133.70943 15.408,200.07337 6.9275,41.80653 10.6501,73.60077 12.6283,107.85281 1.7232,29.83788 3.9726,120.13788 4.0106,161 l 0.028,29.66667 -355,-0.15893 C 870.81991,790.37545 812.78559,790.05778 820,788.61197 Z m 1014.696,-16.94528 c 0.04,-25.9326 2.2907,-72.1412 3.9363,-80.81895 2.7045,-14.26061 6.7446,-18.22395 20.7486,-20.35417 12.9848,-1.9752 13.5335,-2.19759 10.6415,-4.31234 -2.2617,-1.65377 -2.2743,-2.26428 -0.2388,-11.62997 3.5283,-16.23481 4.7172,-29.74784 6.1711,-70.13898 1.4737,-40.94053 1.7185,-44.1661 4.6861,-61.7456 1.0523,-6.23333 2.4901,-15.41471 3.1952,-20.40304 2.3024,-16.28885 6.9169,-19.47953 28.8609,-19.95575 13.9452,-0.30264 14.2398,-0.24628 17.3074,3.31194 3.1096,3.60706 4.3641,8.46785 7.1528,27.71352 0.797,5.5 2.0586,13.3 2.8037,17.33333 0.7451,4.03334 1.9505,24.43334 2.6788,45.33334 1.6197,46.48329 2.4668,59.23359 4.7548,71.57457 2.8188,15.20315 6.6419,20.71166 15.4716,22.29183 8.4337,1.50932 8.4643,1.69771 5.2639,32.47469 -3.8588,37.10733 -10.6346,84.52381 -12.3787,86.62543 -1.1053,1.33176 -14.3767,1.70015 -61.2477,1.70015 h -59.8368 z m 127.9707,17.17959 c 0,-1.00124 1.1905,-10.61231 2.6457,-21.35795 6.5065,-48.04904 9.7933,-87.95508 12.6967,-154.15498 3.1394,-71.58321 4.7754,-88.45279 10.1921,-105.08942 3.6981,-11.35838 10.0308,-17.9351 20.0828,-20.85694 7.3432,-2.13448 7.5895,-2.35294 6.8457,-6.07144 -0.4242,-2.12151 -0.1,-15.73539 0.7219,-30.25308 0.8213,-14.51768 2.3909,-52.49579 3.488,-84.39579 3.8073,-110.70003 5.3124,-127.90931 12.0071,-137.28589 2.9816,-4.17601 3.1037,-4.76933 1.07,-5.19777 -1.3066,-0.27524 -3.8398,1.24432 -5.8788,3.5264 -3.5774,4.00373 -4.1675,6.36716 -7.4692,29.91172 l -1.0687,7.62113 -10,-13.56622 c -5.5,-7.46143 -16.2376,-20.0505 -23.8615,-27.9757 l -13.8614,-14.40948 0.9589,-37.17413 c 0.5636,-21.85071 0.4576,-38.19283 -0.2571,-39.64544 -0.6689,-1.35921 -2.8126,-5.55972 -4.7641,-9.33447 -5.0467,-9.76183 -4.8287,-17.54348 0.7381,-26.353431 8.9648,-14.187222 19.7472,-26.418417 49.7638,-56.450064 l 30.9845,-31.0000014 h 11.3628 11.3629 l 13.1199,12.0398324 c 7.2159,6.621908 13.546,13.071908 14.0668,14.333334 1.2041,2.916394 7.2451,64.69903 9.1545,93.62684 1.4531,22.01317 1.023,38.63006 -1.6304,62.97912 l -1.4144,12.97911 5.0822,8.68756 c 2.795,4.77814 6.0073,8.70072 7.1382,8.71682 1.131,0.0161 4.5127,1.14484 7.5148,2.5083 7.0724,3.21194 9.465,9.0503 11.4418,27.9208 1.3457,12.84718 2.1945,15.74104 8.8601,30.20829 4.0544,8.8 9.6299,21.7 12.39,28.66667 l 5.0183,12.66667 16.4156,0.799 c 9.0286,0.43945 19.1157,1.5253 22.4157,2.41301 14.5388,3.91093 40.7993,12.6056 42.1777,13.96469 0.8311,0.81948 3.409,12.59464 5.7287,26.16703 l 4.2176,24.67708 -7.8799,17.32292 c -18.9626,41.68664 -29.0153,59.306 -44.7497,78.43327 -4.122,5.01069 -7.4941,9.51069 -7.4937,10 4e-4,0.48932 1.2218,4.10273 2.7145,8.02981 5.422,14.26562 8.0888,32.67325 10.5555,72.85986 0.7652,12.46667 1.744,28.1596 2.1752,34.87317 l 0.784,12.20651 4.2184,0.74047 c 2.3201,0.40725 9.1878,0.88772 15.2616,1.06769 l 11.0433,0.32722 6.5741,-6.60752 6.5742,-6.60754 -1.3979,-6 c -2.8167,-12.09037 -0.832,-28.29199 5.9907,-48.90479 3.4416,-10.39764 7.2882,-20.07138 8.5482,-21.49722 3.4036,-3.8518 12.7186,-6.93132 20.9659,-6.93132 h 7.2877 l 14.1735,13.65152 c 16.7595,16.14232 20.8711,21.7745 25.8349,35.38982 2.0427,5.60288 4.2811,10.37608 4.9742,10.60711 0.6932,0.23104 2.9558,-2.69527 5.0281,-6.50289 7.1433,-13.12447 16.5879,-21.26848 38.0265,-32.78992 5.5,-2.95578 11.95,-5.72999 14.3334,-6.1649 L 2400,545.40002 v 122.63333 122.63334 h -11.8053 -11.8055 l 3.1964,-6.67889 c 6.2996,-13.16299 8.7988,-25.87002 8.9136,-45.32111 0.088,-14.81827 -0.4336,-19.9963 -2.9484,-29.29366 -7.9684,-29.4605 -30.3052,-55.7059 -52.3731,-61.53766 -5.492,-1.45132 -7.0014,-1.3098 -14,1.31249 -25.2258,9.45188 -45.9205,37.69595 -51.1265,69.77765 -3.3447,20.61093 -0.7669,45.14093 6.5931,62.74118 l 3.7634,9 h -157.8705 c -132.5188,0 -157.8705,-0.29233 -157.8705,-1.82041 z m -223.7208,-1.90042 c -1.3132,-1.31312 -5.1551,-7.76312 -8.5376,-14.33333 -24.198,-47.00238 -40.6367,-104.86826 -48.6575,-171.27918 -2.9764,-24.64393 -3.3583,-101.22012 -0.6316,-126.66667 10.9907,-102.57184 45.1865,-189.72675 94.8808,-241.82246 22.0773,-23.14424 42.274,-37.13705 65.6372,-45.47544 17.0224,-6.07529 29.7332,-7.89524 48.6965,-6.97241 16.8454,0.81974 22.0458,1.79876 21.3082,4.01148 -0.6054,1.81577 -2.2252,2.66524 -14.5954,7.65384 -45.7837,18.4635 -90.9354,72.41105 -118.5134,141.60051 -24.3171,61.0085 -36.3098,127.75643 -36.354,202.33782 -0.052,88.33725 17.4826,169.00416 51.0852,235.00956 l 9.3285,18.32378 h -30.6297 c -27.6582,0 -30.8614,-0.23163 -33.0172,-2.3875 z M 93.410339,672.33602 c -7.657648,-0.23923 -14.639475,-1.02957 -15.515172,-1.75633 -1.220654,-1.01306 -1.014111,-3.17872 0.885145,-9.28104 5.705207,-18.33087 7.470205,-50.91549 9.229513,-170.39113 1.458456,-99.04466 2.672459,-125.3645 6.017944,-130.47035 1.848724,-2.82151 3.004126,-3.10383 12.702641,-3.10383 10.18403,0 10.72715,-0.15314 11.95008,-3.36968 1.7263,-4.54053 2.50215,-24.11577 4.01481,-101.29699 1.33255,-67.99096 2.59821,-91.92215 6.08501,-115.05569 3.53772,-23.47129 9.35896,-35.85538 18.68596,-39.75245 6.94532,-2.901938 18.95032,-2.372995 25.90712,1.141473 17.55344,8.867727 22.06861,35.358737 25.28216,148.333337 1.29657,45.58179 2.88492,77.36355 4.8673,97.39142 0.74732,7.55013 0.59839,8.14953 -2.36262,9.50874 -3.07506,1.41155 -3.03446,1.47111 1.50644,2.2096 2.56666,0.41743 16.36666,1.03258 30.66666,1.36698 27.97675,0.65425 32.20138,1.55353 34.589,7.36289 3.1968,7.77819 4.12638,36.03343 5.40072,164.16038 0.73302,73.7 1.66104,135.40739 2.06227,137.12754 1.65451,7.09321 4.21887,6.89486 -85.21524,6.59126 -45.56021,-0.15465 -89.10209,-0.47692 -96.759741,-0.71613 z m 293.256331,-6.44404 c -1.1,-0.25596 -13.1,-1.06904 -26.66667,-1.80687 -25.93865,-1.41065 -34.29412,-2.89614 -35.61235,-6.33138 -0.43904,-1.14412 0.19644,-6.35676 1.41218,-11.58364 2.94176,-12.64764 4.81544,-31.63431 4.84373,-49.08327 0.0308,-18.97988 0.67884,-20.4765 9.36564,-21.62884 5.82004,-0.77206 6.63455,-1.21234 5.27451,-2.8511 -1.2644,-1.5235 -1.1511,-3.75876 0.52972,-10.4501 2.12612,-8.46415 3.98581,-29.70927 5.49924,-62.82343 1.07226,-23.46135 3.20674,-41.71074 5.53049,-47.28454 3.20244,-7.68148 5.51593,-9.38213 12.76304,-9.38213 15.82527,0 18.58815,6.06272 21.03951,46.16799 3.11482,50.95987 4.24464,64.4158 6.03984,71.93352 2.45792,10.29296 2.54041,9.73007 -1.68555,11.50144 -3.47387,1.45612 -3.19636,1.61212 5.27792,2.967 4.91953,0.78652 9.60801,2.09853 10.41884,2.91556 0.89736,0.90421 1.969,12.64345 2.73861,30 0.75354,16.99398 2.24435,33.47778 3.68995,40.79914 1.33407,6.75656 2.06441,12.86902 1.62299,13.58325 -1.65996,2.68588 -8.60583,4.12713 -19.16844,3.97744 -6.00226,-0.0851 -11.8132,-0.36409 -12.9132,-0.62004 z M 1939.3333,119.79792 c -15.6528,-6.39415 -36.3469,-10.28199 -58.4881,-10.98821 -11.6351,-0.37112 -21.4449,-0.96504 -21.7997,-1.31984 -2.9976,-2.99756 -28.5318,-87.248452 -31.6436,-104.4089728 L 1826.8432,0 l 18.2451,0.00831724 18.245,0.00831725 11.9307,18.32501651 c 23.6111,36.265533 33.8371,54.932908 42.176,76.991685 l 5.0404,13.333334 13.6995,0.92395 c 7.5345,0.50818 15.0821,1.27103 16.7722,1.69522 l 3.073,0.77126 -2.7063,5.30478 c -3.0935,6.06358 -4.5039,6.30926 -13.9855,2.43604 z"
     style="display:inline;fill:url(#linearGradient964);fill-opacity:1;stroke-width:1.33333337" />
</svg>
